First Name,Last Name,Age,City,Eyes color,Species
John,Doe,32,Tokyo,Blue,Human
Flip,Helm,12,Canberra,Red,Unknown
Terdos,Bendarian,165,Cracow,Blue,Magic tree
Dominik,Elpos,33,Paris,Purple,Orc
Brad,Doe,42,Dublin,Blue,Human
,Doe,42,Dublin,Blue,Human
